Date,"Real GDP - 2005 price (Trillion yen)"
1980/01,264.8
1980/02,264.8
1980/03,264.8
1980/04,263.6
1980/05,263.6
1980/06,263.6
1980/07,269.8
1980/08,269.8
1980/09,269.8
1980/10,275.9
1980/11,275.9
1980/12,275.9
1981/01,278.1
1981/02,278.1
1981/03,278.1
1981/04,281.2
1981/05,281.2
1981/06,281.2
1981/07,280.6
1981/08,280.6
1981/09,280.6
1981/10,282.6
1981/11,282.6
1981/12,282.6
1982/01,288.2
1982/02,288.2
1982/03,288.2
1982/04,289.4
1982/05,289.4
1982/06,289.4
1982/07,290.6
1982/08,290.6
1982/09,290.6
1982/10,294.7
1982/11,294.7
1982/12,294.7
1983/01,294.5
1983/02,294.5
1983/03,294.5
1983/04,297.5
1983/05,297.5
1983/06,297.5
1983/07,301.7
1983/08,301.7
1983/09,301.7
1983/10,304.3
1983/11,304.3
1983/12,304.3
1984/01,307.8
1984/02,307.8
1984/03,307.8
1984/04,312.8
1984/05,312.8
1984/06,312.8
1984/07,316.3
1984/08,316.3
1984/09,316.3
1984/10,316.6
1984/11,316.6
1984/12,316.6
1985/01,324.3
1985/02,324.3
1985/03,324.3
1985/04,328.8
1985/05,328.8
1985/06,328.8
1985/07,335.7
1985/08,335.7
1985/09,335.7
1985/10,340.5
1985/11,340.5
1985/12,340.5
1986/01,341.5
1986/02,341.5
1986/03,341.5
1986/04,340.5
1986/05,340.5
1986/06,340.5
1986/07,343.2
1986/08,343.2
1986/09,343.2
1986/10,346.8
1986/11,346.8
1986/12,346.8
1987/01,345.4
1987/02,345.4
1987/03,345.4
1987/04,352.6
1987/05,352.6
1987/06,352.6
1987/07,359.5
1987/08,359.5
1987/09,359.5
1987/10,368.8
1987/11,368.8
1987/12,368.8
1988/01,377.1
1988/02,377.1
1988/03,377.1
1988/04,377.5
1988/05,377.5
1988/06,377.5
1988/07,385.2
1988/08,385.2
1988/09,385.2
1988/10,389.5
1988/11,389.5
1988/12,389.5
1989/01,400.2
1989/02,400.2
1989/03,400.2
1989/04,395
1989/05,395
1989/06,395
1989/07,401.7
1989/08,401.7
1989/09,401.7
1989/10,414.1
1989/11,414.1
1989/12,414.1
1990/01,411.1
1990/02,411.1
1990/03,411.1
1990/04,423.5
1990/05,423.5
1990/06,423.5
1990/07,431.4
1990/08,431.4
1990/09,431.4
1990/10,430.4
1990/11,430.4
1990/12,430.4
1991/01,434.2
1991/02,434.2
1991/03,434.2
1991/04,439.2
1991/05,439.2
1991/06,439.2
1991/07,439.3
1991/08,439.3
1991/09,439.3
1991/10,442
1991/11,442
1991/12,442
1992/01,442.6
1992/02,442.6
1992/03,442.6
1992/04,442.4
1992/05,442.4
1992/06,442.4
1992/07,444.5
1992/08,444.5
1992/09,444.5
1992/10,441.7
1992/11,441.7
1992/12,441.7
1993/01,446.1
1993/02,446.1
1993/03,446.1
1993/04,443
1993/05,443
1993/06,443
1993/07,441
1993/08,441
1993/09,441
1993/10,443.4
1993/11,443.4
1993/12,443.4
1994/01,447.2
1994/02,447.2
1994/03,447.2
1994/04,442.4
1994/05,442.4
1994/06,442.4
1994/07,451.1
1994/08,451.1
1994/09,451.1
1994/10,446.3
1994/11,446.3
1994/12,446.3
1995/01,449
1995/02,449
1995/03,449
1995/04,455.3
1995/05,455.3
1995/06,455.3
1995/07,458.5
1995/08,458.5
1995/09,458.5
1995/10,458.6
1995/11,458.6
1995/12,458.6
1996/01,462.2
1996/02,462.2
1996/03,462.2
1996/04,466.8
1996/05,466.8
1996/06,466.8
1996/07,467
1996/08,467
1996/09,467
1996/10,474
1996/11,474
1996/12,474
1997/01,477.6
1997/02,477.6
1997/03,477.6
1997/04,473
1997/05,473
1997/06,473
1997/07,474.9
1997/08,474.9
1997/09,474.9
1997/10,474.5
1997/11,474.5
1997/12,474.5
1998/01,465.6
1998/02,465.6
1998/03,465.6
1998/04,463.1
1998/05,463.1
1998/06,463.1
1998/07,464.4
1998/08,464.4
1998/09,464.4
1998/10,467
1998/11,467
1998/12,467
1999/01,463
1999/02,463
1999/03,463
1999/04,464.9
1999/05,464.9
1999/06,464.9
1999/07,464
1999/08,464
1999/09,464
1999/10,466.5
1999/11,466.5
1999/12,466.5
2000/01,474.2
2000/02,474.2
2000/03,474.2
2000/04,475.1
2000/05,475.1
2000/06,475.1
2000/07,473.6
2000/08,473.6
2000/09,473.6
2000/10,477.1
2000/11,477.1
2000/12,477.1
2001/01,480.2
2001/02,480.2
2001/03,480.2
2001/04,479.3
2001/05,479.3
2001/06,479.3
2001/07,473.9
2001/08,473.9
2001/09,473.9
2001/10,473.4
2001/11,473.4
2001/12,473.4
2002/01,472.4
2002/02,472.4
2002/03,472.4
2002/04,477.3
2002/05,477.3
2002/06,477.3
2002/07,480.3
2002/08,480.3
2002/09,480.3
2002/10,482.2
2002/11,482.2
2002/12,482.2
2003/01,479.5
2003/02,479.5
2003/03,479.5
2003/04,485.6
2003/05,485.6
2003/06,485.6
2003/07,487.5
2003/08,487.5
2003/09,487.5
2003/10,492.6
2003/11,492.6
2003/12,492.6
2004/01,497.2
2004/02,497.2
2004/03,497.2
2004/04,497.6
2004/05,497.6
2004/06,497.6
2004/07,498.3
2004/08,498.3
2004/09,498.3
2004/10,497
2004/11,497
2004/12,497
2005/01,498
2005/02,498
2005/03,498
2005/04,504.6
2005/05,504.6
2005/06,504.6
2005/07,506.3
2005/08,506.3
2005/09,506.3
2005/10,507.3
2005/11,507.3
2005/12,507.3
2006/01,509.5
2006/02,509.5
2006/03,509.5
2006/04,511.6
2006/05,511.6
2006/06,511.6
2006/07,511.2
2006/08,511.2
2006/09,511.2
2006/10,517.8
2006/11,517.8
2006/12,517.8
2007/01,523
2007/02,523
2007/03,523
2007/04,523.7
2007/05,523.7
2007/06,523.7
2007/07,521.7
2007/08,521.7
2007/09,521.7
2007/10,526.1
2007/11,526.1
2007/12,526.1
2008/01,529.7
2008/02,529.7
2008/03,529.7
2008/04,523.5
2008/05,523.5
2008/06,523.5
2008/07,518
2008/08,518
2008/09,518
2008/10,500.8
2008/11,500.8
2008/12,500.8
2009/01,480.9
2009/02,480.9
2009/03,480.9
2009/04,489.3
2009/05,489.3
2009/06,489.3
2009/07,489.6
2009/08,489.6
2009/09,489.6
2009/10,497.9
2009/11,497.9
2009/12,497.9
2010/01,505.2
2010/02,505.2
2010/03,505.2
2010/04,510.7
2010/05,510.7
2010/06,510.7
2010/07,518.2
2010/08,518.2
2010/09,518.2
2010/10,515.2
2010/11,515.2
2010/12,515.2
2011/01,505.7
2011/02,505.7
2011/03,505.7
2011/04,502.6
2011/05,502.6
2011/06,502.6
2011/07,515.9
2011/08,515.9
2011/09,515.9
2011/10,516.5
2011/11,516.5
2011/12,516.5
2012/01,522.3
2012/02,522.3
2012/03,522.3
2012/04,520.2
2012/05,520.2
2012/06,520.2
2012/07,517.5
2012/08,517.5
2012/09,517.5
2012/10,516.4
2012/11,516.4
2012/12,516.4
2013/01,523.9
2013/02,523.9
2013/03,523.9
2013/04,527.8
2013/05,527.8
2013/06,527.8
2013/07,529.9
2013/08,529.9
2013/09,529.9
2013/10,528
2013/11,528
2013/12,528
2014/01,535.5
2014/02,535.5
2014/03,535.5
2014/04,526.3
2014/05,526.3
2014/06,526.3
2014/07,523.8
2014/08,523.8
2014/09,523.8
